…
**Decision Rule**: If your file size \> available RAM / 2, use chunked
functions.

## Step 1: Calculate Resolution Depth

The
[`calculateResolutionDepth()`](https://jasonwong-lab.github.io/gghic/reference/resolution-depth.md)
function bins genomic positions and counts unique interactions per bin:

``` r
# Calculate depth at 10kb resolution
depth_10kb <- calculateResolutionDepth(pairs, bin_size = 10000)

depth_10kb
#> # A tibble: 2,699 × 3
#>    chrom   bin count
#>    <chr> <int> <int>
#>  1 chr1    845    12
#>  2 chr2    812     6
#>  3 chr3    779     7
#>  4 chr1    846     7
#>  5 chr2    813     6
#>  6 chr3    780     4
#>  7 chr1    847     7
#>  8 chr3    781     8
#>  9 chr2    814     6
#> 10 chr1    848     9
#> # ℹ 2,689 more rows
```
…
