Multi-way Contact Analysis with Hypergraphs • gghic
…
Step 2: Convert to Tidy Format

For visualization and analysis, convert to long format:

# All reads
df <- tidyHypergraph(hg)

# Subset to top 100 reads by contact count
df_top <- tidyHypergraph(hg, max_reads = 100)

df
#> # A tibble: 981 × 7
#>    bin_idx read_idx bin_id   chrom   bin read_name  n_contacts
#>      <int>    <int> <chr>    <chr> <int> <chr>           <dbl>
#>  1       1        1 chr22:14 chr22    14 read_00004          5
#>  2       1      183 chr22:14 chr22    14 read_00379          4
#>  3       1      212 chr22:14 chr22    14 read_00440          4
#>  4       2       55 chr22:17 chr22    17 read_00119          5
#>  5       2      116 chr22:17 chr22    17 read_00257          5
#>  6       3       61 chr22:18 chr22    18 read_00142          4
#>  7       3      165 chr22:18 chr22    18 read_00352          6
#>  8       3      176 chr22:18 chr22    18 read_00368          5
#>  9       4       55 chr22:19 chr22    19 read_00119          5
#> 10       4       87 chr22:19 chr22    19 read_00201          6
#> # ℹ 971 more rows
…
